-- Merging decision tree log ---
manifest
ADDED from D:\Documents\ISEN\M1\Android\git\Android-Project\vivien\WLTwitter\app\src\main\AndroidManifest.xml:2:1-30:12
	package
		ADDED from D:\Documents\ISEN\M1\Android\git\Android-Project\vivien\WLTwitter\app\src\main\AndroidManifest.xml:3:5-44
		INJECTED from D:\Documents\ISEN\M1\Android\git\Android-Project\vivien\WLTwitter\app\src\main\AndroidManifest.xml
		INJECTED from D:\Documents\ISEN\M1\Android\git\Android-Project\vivien\WLTwitter\app\src\main\AndroidManifest.xml
	android:versionName
		INJECTED from D:\Documents\ISEN\M1\Android\git\Android-Project\vivien\WLTwitter\app\src\main\AndroidManifest.xml
		INJECTED from D:\Documents\ISEN\M1\Android\git\Android-Project\vivien\WLTwitter\app\src\main\AndroidManifest.xml
	xmlns:android
		ADDED from D:\Documents\ISEN\M1\Android\git\Android-Project\vivien\WLTwitter\app\src\main\AndroidManifest.xml:2:11-69
	android:versionCode
		INJECTED from D:\Documents\ISEN\M1\Android\git\Android-Project\vivien\WLTwitter\app\src\main\AndroidManifest.xml
		INJECTED from D:\Documents\ISEN\M1\Android\git\Android-Project\vivien\WLTwitter\app\src\main\AndroidManifest.xml
application
ADDED from D:\Documents\ISEN\M1\Android\git\Android-Project\vivien\WLTwitter\app\src\main\AndroidManifest.xml:5:5-28:19
MERGED from [com.android.support:appcompat-v7:24.2.0] D:\Documents\ISEN\M1\Android\git\Android-Project\vivien\WLTwitter\app\build\intermediates\exploded-aar\com.android.support\appcompat-v7\24.2.0\AndroidManifest.xml:25:5-20
MERGED from [com.android.support:animated-vector-drawable:24.2.0] D:\Documents\ISEN\M1\Android\git\Android-Project\vivien\WLTwitter\app\build\intermediates\exploded-aar\com.android.support\animated-vector-drawable\24.2.0\AndroidManifest.xml:22:5-20
MERGED from [com.android.support:support-vector-drawable:24.2.0] D:\Documents\ISEN\M1\Android\git\Android-Project\vivien\WLTwitter\app\build\intermediates\exploded-aar\com.android.support\support-vector-drawable\24.2.0\AndroidManifest.xml:23:5-20
MERGED from [com.android.support:support-v4:24.2.0] D:\Documents\ISEN\M1\Android\git\Android-Project\vivien\WLTwitter\app\build\intermediates\exploded-aar\com.android.support\support-v4\24.2.0\AndroidManifest.xml:25:5-20
MERGED from [com.android.support:support-fragment:24.2.0] D:\Documents\ISEN\M1\Android\git\Android-Project\vivien\WLTwitter\app\build\intermediates\exploded-aar\com.android.support\support-fragment\24.2.0\AndroidManifest.xml:25:5-20
MERGED from [com.android.support:support-core-utils:24.2.0] D:\Documents\ISEN\M1\Android\git\Android-Project\vivien\WLTwitter\app\build\intermediates\exploded-aar\com.android.support\support-core-utils\24.2.0\AndroidManifest.xml:25:5-20
MERGED from [com.android.support:support-media-compat:24.2.0] D:\Documents\ISEN\M1\Android\git\Android-Project\vivien\WLTwitter\app\build\intermediates\exploded-aar\com.android.support\support-media-compat\24.2.0\AndroidManifest.xml:25:5-20
MERGED from [com.android.support:support-core-ui:24.2.0] D:\Documents\ISEN\M1\Android\git\Android-Project\vivien\WLTwitter\app\build\intermediates\exploded-aar\com.android.support\support-core-ui\24.2.0\AndroidManifest.xml:25:5-20
MERGED from [com.android.support:support-compat:24.2.0] D:\Documents\ISEN\M1\Android\git\Android-Project\vivien\WLTwitter\app\build\intermediates\exploded-aar\com.android.support\support-compat\24.2.0\AndroidManifest.xml:25:5-20
	android:label
		ADDED from D:\Documents\ISEN\M1\Android\git\Android-Project\vivien\WLTwitter\app\src\main\AndroidManifest.xml:8:9-41
	android:allowBackup
		ADDED from D:\Documents\ISEN\M1\Android\git\Android-Project\vivien\WLTwitter\app\src\main\AndroidManifest.xml:6:9-35
	android:icon
		ADDED from D:\Documents\ISEN\M1\Android\git\Android-Project\vivien\WLTwitter\app\src\main\AndroidManifest.xml:7:9-43
	android:theme
		ADDED from D:\Documents\ISEN\M1\Android\git\Android-Project\vivien\WLTwitter\app\src\main\AndroidManifest.xml:9:9-40
activity#worldline.ssm.rd.ux.wltwitter.WLTwitterLoginActivity
ADDED from D:\Documents\ISEN\M1\Android\git\Android-Project\vivien\WLTwitter\app\src\main\AndroidManifest.xml:10:9-18:20
	android:label
		ADDED from D:\Documents\ISEN\M1\Android\git\Android-Project\vivien\WLTwitter\app\src\main\AndroidManifest.xml:12:13-45
	android:name
		ADDED from D:\Documents\ISEN\M1\Android\git\Android-Project\vivien\WLTwitter\app\src\main\AndroidManifest.xml:11:13-51
intent-filter#android.intent.action.MAIN+android.intent.category.LAUNCHER
ADDED from D:\Documents\ISEN\M1\Android\git\Android-Project\vivien\WLTwitter\app\src\main\AndroidManifest.xml:13:13-17:29
action#android.intent.action.MAIN
ADDED from D:\Documents\ISEN\M1\Android\git\Android-Project\vivien\WLTwitter\app\src\main\AndroidManifest.xml:14:17-69
	android:name
		ADDED from D:\Documents\ISEN\M1\Android\git\Android-Project\vivien\WLTwitter\app\src\main\AndroidManifest.xml:14:25-66
category#android.intent.category.LAUNCHER
ADDED from D:\Documents\ISEN\M1\Android\git\Android-Project\vivien\WLTwitter\app\src\main\AndroidManifest.xml:16:17-77
	android:name
		ADDED from D:\Documents\ISEN\M1\Android\git\Android-Project\vivien\WLTwitter\app\src\main\AndroidManifest.xml:16:27-74
activity#worldline.ssm.rd.ux.wltwitter.WLTwitterHome
ADDED from D:\Documents\ISEN\M1\Android\git\Android-Project\vivien\WLTwitter\app\src\main\AndroidManifest.xml:19:9-27:20
	android:label
		ADDED from D:\Documents\ISEN\M1\Android\git\Android-Project\vivien\WLTwitter\app\src\main\AndroidManifest.xml:21:13-45
	android:name
		ADDED from D:\Documents\ISEN\M1\Android\git\Android-Project\vivien\WLTwitter\app\src\main\AndroidManifest.xml:20:13-42
intent-filter#android.intent.action.HOME+android.intent.category.LAUNCHER
ADDED from D:\Documents\ISEN\M1\Android\git\Android-Project\vivien\WLTwitter\app\src\main\AndroidManifest.xml:22:13-26:29
action#android.intent.action.HOME
ADDED from D:\Documents\ISEN\M1\Android\git\Android-Project\vivien\WLTwitter\app\src\main\AndroidManifest.xml:23:17-69
	android:name
		ADDED from D:\Documents\ISEN\M1\Android\git\Android-Project\vivien\WLTwitter\app\src\main\AndroidManifest.xml:23:25-66
uses-sdk
INJECTED from D:\Documents\ISEN\M1\Android\git\Android-Project\vivien\WLTwitter\app\src\main\AndroidManifest.xml reason: use-sdk injection requested
MERGED from [com.android.support:appcompat-v7:24.2.0] D:\Documents\ISEN\M1\Android\git\Android-Project\vivien\WLTwitter\app\build\intermediates\exploded-aar\com.android.support\appcompat-v7\24.2.0\AndroidManifest.xml:21:5-23:78
MERGED from [com.android.support:animated-vector-drawable:24.2.0] D:\Documents\ISEN\M1\Android\git\Android-Project\vivien\WLTwitter\app\build\intermediates\exploded-aar\com.android.support\animated-vector-drawable\24.2.0\AndroidManifest.xml:20:5-44
MERGED from [com.android.support:support-vector-drawable:24.2.0] D:\Documents\ISEN\M1\Android\git\Android-Project\vivien\WLTwitter\app\build\intermediates\exploded-aar\com.android.support\support-vector-drawable\24.2.0\AndroidManifest.xml:21:5-43
MERGED from [com.android.support:support-v4:24.2.0] D:\Documents\ISEN\M1\Android\git\Android-Project\vivien\WLTwitter\app\build\intermediates\exploded-aar\com.android.support\support-v4\24.2.0\AndroidManifest.xml:21:5-23:54
MERGED from [com.android.support:support-fragment:24.2.0] D:\Documents\ISEN\M1\Android\git\Android-Project\vivien\WLTwitter\app\build\intermediates\exploded-aar\com.android.support\support-fragment\24.2.0\AndroidManifest.xml:21:5-23:60
MERGED from [com.android.support:support-core-utils:24.2.0] D:\Documents\ISEN\M1\Android\git\Android-Project\vivien\WLTwitter\app\build\intermediates\exploded-aar\com.android.support\support-core-utils\24.2.0\AndroidManifest.xml:21:5-23:61
MERGED from [com.android.support:support-media-compat:24.2.0] D:\Documents\ISEN\M1\Android\git\Android-Project\vivien\WLTwitter\app\build\intermediates\exploded-aar\com.android.support\support-media-compat\24.2.0\AndroidManifest.xml:21:5-23:63
MERGED from [com.android.support:support-core-ui:24.2.0] D:\Documents\ISEN\M1\Android\git\Android-Project\vivien\WLTwitter\app\build\intermediates\exploded-aar\com.android.support\support-core-ui\24.2.0\AndroidManifest.xml:21:5-23:58
MERGED from [com.android.support:support-compat:24.2.0] D:\Documents\ISEN\M1\Android\git\Android-Project\vivien\WLTwitter\app\build\intermediates\exploded-aar\com.android.support\support-compat\24.2.0\AndroidManifest.xml:21:5-23:58
	tools:overrideLibrary
		ADDED from [com.android.support:appcompat-v7:24.2.0] D:\Documents\ISEN\M1\Android\git\Android-Project\vivien\WLTwitter\app\build\intermediates\exploded-aar\com.android.support\appcompat-v7\24.2.0\AndroidManifest.xml:23:9-75
	android:targetSdkVersion
		INJECTED from D:\Documents\ISEN\M1\Android\git\Android-Project\vivien\WLTwitter\app\src\main\AndroidManifest.xml
		INJECTED from D:\Documents\ISEN\M1\Android\git\Android-Project\vivien\WLTwitter\app\src\main\AndroidManifest.xml
	android:minSdkVersion
		INJECTED from D:\Documents\ISEN\M1\Android\git\Android-Project\vivien\WLTwitter\app\src\main\AndroidManifest.xml
		INJECTED from D:\Documents\ISEN\M1\Android\git\Android-Project\vivien\WLTwitter\app\src\main\AndroidManifest.xml
